…
``` r
# Pairwise comparisons using Dunn's test
pwc <- df_plot %>% 
  dunn_test(`value` ~ CellType, p.adjust.method = "bonferroni") 
pwc
```

```
## # A tibble: 28 × 9
##    .y.   group1         group2                    n1    n2 statistic        p   p.adj p.adj.signif
##  * <chr> <chr>          <chr>                  <int> <int>     <dbl>    <dbl>   <dbl> <chr>       
##  1 value ILCs           NK cells/ILC1s             9     9    -1.83  0.0670   1       ns          
##  2 value ILCs           ILC2s                      9     9    -1.36  0.174    1       ns          
##  3 value ILCs           ILC3s                      9     9    -3.30  0.000959 0.0269  *           
##  4 value ILCs           Myeloid cells              9     9     2.05  0.0408   1       ns          
##  5 value ILCs           B cells & Plasma cells     9     9     2.94  0.00333  0.0931  ns          
##  6 value ILCs           T cytotox cells            9     9    -0.975 0.330    1       ns          
##  7 value ILCs           T helper cells             9     9     1.49  0.135    1       ns          
##  8 value NK cells/ILC1s ILC2s                      9     9     0.473 0.636    1       ns          
##  9 value NK cells/ILC1s ILC3s                      9     9    -1.47  0.141    1       ns          
## 10 value NK cells/ILC1s Myeloid cells              9     9     3.88  0.000106 0.00296 **          
## # ℹ 18 more rows
```
…
